Cell state dependent drug response analysis
…
However, it should be noted that this is based on just 13 cells.

model_interaction %>% 
  filter(term_type == "treatment" & p.value < 0.05) %>%
  arrange(fdr)

# A tibble: 37 × 8
   ab_name      term     estimate std.error statistic  p.value     fdr term_type
   <chr>        <chr>       <dbl>     <dbl>     <dbl>    <dbl>   <dbl> <chr>    
 1 ERK1_2_P     treatme…    1.61      0.242      6.65 7.46e-11 4.80e-9 treatment
 2 MAPK_APK2_P  treatme…    1.64      0.279      5.87 7.56e- 9 3.35e-7 treatment
 3 CMYC         treatme…   -1.51      0.274     -5.51 5.52e- 8 1.87e-6 treatment
 4 KALLIKREIN_6 treatme…    1.59      0.300      5.29 1.83e- 7 5.17e-6 treatment
 5 NFKB_P65_P   treatme…   -1.15      0.263     -4.37 1.52e- 5 2.42e-4 treatment
 6 CJUN_P       treatme…   -0.992     0.242     -4.11 4.63e- 5 6.54e-4 treatment
 7 SRC          treatme…   -1.21      0.302     -3.99 7.54e- 5 9.82e-4 treatment
 8 RSK1_P_T359  treatme…   -1.12      0.288     -3.87 1.22e- 4 1.51e-3 treatment
 9 H2A_P        treatme…   -1.15      0.299     -3.84 1.40e- 4 1.71e-3 treatment
10 SMAD1        treatme…   -1.16      0.309     -3.76 1.87e- 4 2.20e-3 treatment
# ℹ 27 more rows
…
model_altref <- 
  purrr::map(fit_lst_altrefs, get_model_altref) |> 
  bind_rows(.id="id")

model_altref |> 
  filter(term_type == "interaction" ) |> 
  select(id, term, ab_name, estimate) |> 
  pivot_wider(names_from = id, values_from = estimate)

# A tibble: 1,242 × 11
   term   ab_name     `1`     `2`     `3`     `4`     `5`     `6`     `7`    `8`
   <chr>  <chr>     <dbl>   <dbl>   <dbl>   <dbl>   <dbl>   <dbl>   <dbl>  <dbl>
 1 clust… ITGB1    0.103  NA       0.170   0.352   0.157  -0.149   0.413  -0.548
 2 clust… ITGB1   -0.0679 -0.170  NA       0.182  -0.0139 -0.320   0.243  -0.719
 3 clust… ITGB1   -0.250  -0.352  -0.182  NA      -0.196  -0.502   0.0607 -0.901
 4 clust… ITGB1   -0.0540 -0.157   0.0139  0.196  NA      -0.306   0.256  -0.705
 5 clust… ITGB1    0.252   0.149   0.320   0.502   0.306  NA       0.562  -0.399
 6 clust… ITGB1   -0.310  -0.413  -0.243  -0.0607 -0.256  -0.562  NA      -0.961
 7 clust… ITGB1    0.651   0.548   0.719   0.901   0.705   0.399   0.961  NA    
 8 clust… ITGB1   -0.238  -0.341  -0.170   0.0118 -0.184  -0.490   0.0725 -0.889
 9 clust… ITGB1    0.540  NA       0.0595  0.191   0.115   0.0953  0.658  -0.349
10 clust… ITGB1    0.480  -0.0595 NA       0.132   0.0555  0.0358  0.598  -0.409
# ℹ 1,232 more rows
# ℹ 1 more variable: `9` <dbl>
…
